…
将两个数据集合并

``` r
fas_df = 
  left_join(pup_df, litter_df, by = "litter_number") |>
  relocate(litter_number, dose, day_of_tx ) #调整表格内部顺序

fas_df
```

    ## # A tibble: 313 × 15
    ##    litter_number dose  day_of_tx sex   pd_ears pd_eyes pd_pivot pd_walk
    ##    <chr>         <chr> <chr>     <fct>   <dbl>   <dbl>    <dbl>   <dbl>
    ##  1 #85           con   7         male        4      13        7      11
    ##  2 #85           con   7         male        4      13        7      12
    ##  3 #1/2/95/2     con   7         male        5      13        7       9
    ##  4 #1/2/95/2     con   7         male        5      13        8      10
    ##  5 #5/5/3/83/3-3 con   7         male        5      13        8      10
    ##  6 #5/5/3/83/3-3 con   7         male        5      14        6       9
    ##  7 #5/4/2/95/2   con   7         male       NA      14        5       9
    ##  8 #4/2/95/3-3   con   7         male        4      13        6       8
    ##  9 #4/2/95/3-3   con   7         male        4      13        7       9
    ## 10 #2/2/95/3-2   con   7         male        4      NA        8      10
    ## # ℹ 303 more rows
    ## # ℹ 7 more variables: gd0_weight <dbl>, gd18_weight <dbl>, gd_of_birth <dbl>,
    ## #   pups_born_alive <dbl>, pups_dead_birth <dbl>, pups_survive <dbl>,
    ## #   wt_gain <dbl>
